Input 		Nobribe Bribe
tokens-3-1.pg  1  1
tokens-3-2.pg  0.5  0.666667
tokens-3-3.pg  1  1
tokens-4-1.pg  1  1
tokens-4-2.pg  0.5  0.5
tokens-4-3.pg  0.333333  0.75
tokens-4-4.pg  1  1
tokens-5-1.pg  1  1
tokens-5-2.pg  0.5  0.5
tokens-5-3.pg  0.333333  0.466667
tokens-5-4.pg  0.25  0.8
tokens-5-5.pg  1  1
tokens-6-1.pg  1  1
tokens-6-2.pg  0.5  0.5
tokens-6-3.pg  0.333333  0.333333
tokens-6-4.pg  0.25  0.583333
tokens-6-5.pg  0.2  0.833333
tokens-6-6.pg  1  1
tokens-7-1.pg  1  1
tokens-7-2.pg  0.5  0.5
tokens-7-3.pg  0.333333  0.333333
tokens-7-4.pg  0.25  0.357143
tokens-7-5.pg  0.2  0.657143
tokens-7-6.pg  0.166667  0.857143
tokens-7-7.pg  1  1
tokens-8-1.pg  1  1
tokens-8-2.pg  0.5  0.5
tokens-8-3.pg  0.333333  0.333333
tokens-8-4.pg  0.25  0.25
tokens-8-5.pg  0.2  0.475
tokens-8-6.pg  0.166667  0.708333
tokens-8-7.pg  0.142857  0.875
tokens-8-8.pg  1  1
tokens-9-1.pg  1  1
tokens-9-2.pg  0.5  0.5
tokens-9-3.pg  0.333333  0.333333
tokens-9-4.pg  0.25  0.25
tokens-9-5.pg  0.2  0.288889
tokens-9-6.pg  0.166667  0.555556
tokens-9-7.pg  0.142857  0.746032
tokens-9-8.pg  0.125  0.888889
