Input 					 MMPG with Bribe 	 MMPG without Bribe
randomgame-10-1-1-2.pg 	 FinalAnswer : 0.5 	 FinalAnswer : 0
randomgame-10-1-2-3.pg 	 FinalAnswer : 1 	 FinalAnswer : 1
randomgame-10-1-3-4.pg 	 FinalAnswer : 1 	 FinalAnswer : 1
randomgame-10-1-4-5.pg 	 FinalAnswer : 1 	 FinalAnswer : 1
randomgame-10-1-5-6.pg 	 FinalAnswer : 1 	 FinalAnswer : 1
randomgame-10-1-6-7.pg 	 FinalAnswer : 1 	 FinalAnswer : 1
randomgame-11-1-1-2.pg 	 FinalAnswer : 1 	 FinalAnswer : 1
randomgame-11-1-2-3.pg 	 FinalAnswer : 1 	 FinalAnswer : 1
randomgame-11-1-3-4.pg 	 FinalAnswer : 1 	 FinalAnswer : 1
randomgame-11-1-4-5.pg 	 FinalAnswer : 1 	 FinalAnswer : 1
randomgame-11-1-5-6.pg 	 FinalAnswer : 1 	 FinalAnswer : 1
randomgame-11-1-6-7.pg 	 FinalAnswer : 1 	 FinalAnswer : 1
randomgame-12-1-1-2.pg 	 FinalAnswer : 1 	 FinalAnswer : 1
randomgame-12-1-2-3.pg 	 FinalAnswer : 1 	 FinalAnswer : 1
randomgame-12-1-3-4.pg 	 FinalAnswer : 1 	 FinalAnswer : 1
randomgame-12-1-4-5.pg 	 FinalAnswer : 1 	 FinalAnswer : 1
randomgame-12-1-5-6.pg 	 FinalAnswer : 1 	 FinalAnswer : 1
randomgame-12-1-6-7.pg 	 FinalAnswer : 1 	 FinalAnswer : 1
randomgame-13-1-1-2.pg 	 FinalAnswer : 1 	 FinalAnswer : 1
randomgame-13-1-2-3.pg 	 FinalAnswer : 1 	 FinalAnswer : 1
randomgame-13-1-3-4.pg 	 FinalAnswer : 0.5 	 FinalAnswer : 0.333333
randomgame-13-1-4-5.pg 	 FinalAnswer : 1 	 FinalAnswer : 1
randomgame-13-1-5-6.pg 	 FinalAnswer : 1 	 FinalAnswer : 1
randomgame-13-1-6-7.pg 	 FinalAnswer : 1 	 FinalAnswer : 1
randomgame-14-1-1-2.pg 	 FinalAnswer : 0.666667 	 FinalAnswer : 0.666667
randomgame-14-1-2-3.pg 	 FinalAnswer : 0.666667 	 FinalAnswer : 0
randomgame-14-1-3-4.pg 	 FinalAnswer : 1 	 FinalAnswer : 1
randomgame-14-1-4-5.pg 	 FinalAnswer : 0.5 	 FinalAnswer : 0.5
randomgame-14-1-5-6.pg 	 FinalAnswer : 1 	 FinalAnswer : 1
randomgame-14-1-6-7.pg 	 FinalAnswer : 1 	 FinalAnswer : 1
randomgame-15-1-1-2.pg 	 FinalAnswer : 0.8 	 FinalAnswer : 0.8
randomgame-15-1-2-3.pg 	 FinalAnswer : 1 	 FinalAnswer : 1
randomgame-15-1-3-4.pg 	 FinalAnswer : 1 	 FinalAnswer : 1
randomgame-15-1-4-5.pg 	 FinalAnswer : 1 	 FinalAnswer : 1
randomgame-15-1-5-6.pg 	 FinalAnswer : 1 	 FinalAnswer : 1
randomgame-15-1-6-7.pg 	 FinalAnswer : 1 	 FinalAnswer : 1
randomgame-16-1-1-2.pg 	 FinalAnswer : 0.5 	 FinalAnswer : 0.25
randomgame-16-1-2-3.pg 	 FinalAnswer : 1 	 FinalAnswer : 1
randomgame-16-1-3-4.pg 	 FinalAnswer : 1 	 FinalAnswer : 1
randomgame-16-1-4-5.pg 	 FinalAnswer : 1 	 FinalAnswer : 1
randomgame-16-1-5-6.pg 	 FinalAnswer : 1 	 FinalAnswer : 1
randomgame-16-1-6-7.pg 	 FinalAnswer : 1 	 FinalAnswer : 1
randomgame-17-1-1-2.pg 	 FinalAnswer : 0 	 FinalAnswer : 0
randomgame-17-1-2-3.pg 	 FinalAnswer : 1 	 FinalAnswer : 1
randomgame-17-1-3-4.pg 	 FinalAnswer : 1 	 FinalAnswer : 1
randomgame-17-1-4-5.pg 	 FinalAnswer : 0.5 	 FinalAnswer : 0
randomgame-17-1-5-6.pg 	 FinalAnswer : 1 	 FinalAnswer : 1
randomgame-17-1-6-7.pg 	 FinalAnswer : 1 	 FinalAnswer : 1
randomgame-18-1-1-2.pg 	 FinalAnswer : 1 	 FinalAnswer : 1
randomgame-18-1-2-3.pg 	 FinalAnswer : 1 	 FinalAnswer : 1
randomgame-18-1-3-4.pg 	 FinalAnswer : 1 	 FinalAnswer : 1
randomgame-18-1-4-5.pg 	 FinalAnswer : 0.8 	 FinalAnswer : 0.8
randomgame-18-1-5-6.pg 	 FinalAnswer : 1 	 FinalAnswer : 1
randomgame-18-1-6-7.pg 	 FinalAnswer : 1 	 FinalAnswer : 1
randomgame-19-1-1-2.pg 	 FinalAnswer : 0.666667 	 FinalAnswer : 0.666667
randomgame-19-1-2-3.pg 	 FinalAnswer : 1 	 FinalAnswer : 1
randomgame-19-1-3-4.pg 	 FinalAnswer : 1 	 FinalAnswer : 1
randomgame-19-1-4-5.pg 	 FinalAnswer : 1 	 FinalAnswer : 1
randomgame-19-1-5-6.pg 	 FinalAnswer : 1 	 FinalAnswer : 1
randomgame-19-1-6-7.pg 	 FinalAnswer : 1 	 FinalAnswer : 1
randomgame-20-1-1-2.pg 	 FinalAnswer : 1 	 FinalAnswer : 1
randomgame-20-1-2-3.pg 	 FinalAnswer : 1 	 FinalAnswer : 1
randomgame-20-1-3-4.pg 	 FinalAnswer : 1 	 FinalAnswer : 1
randomgame-20-1-4-5.pg 	 FinalAnswer : 1 	 FinalAnswer : 1
randomgame-20-1-5-6.pg 	 FinalAnswer : 1 	 FinalAnswer : 1
randomgame-20-1-6-7.pg 	 FinalAnswer : 1 	 FinalAnswer : 1
