Input 				 Output 	 Mean Payoff
randomgame-100-4-5-6.pg 	 Correct 	 Time 0.300708
randomgame-100-4-6-7.pg 	 Correct 	 Time 0.369854
randomgame-100-4-7-8.pg 	 Correct 	 Time 0.488314
randomgame-100-4-8-9.pg 	 Correct 	 Time 0.463325
randomgame-100-4-9-10.pg 	 Correct 	 Time 0.44313
randomgame-100-4-10-11.pg 	 Correct 	 Time 0.606063
randomgame-101-4-5-6.pg 	 Correct 	 Time 0.530593
randomgame-101-4-6-7.pg 	 Correct 	 Time 0.385439
randomgame-101-4-7-8.pg 	 Correct 	 Time 0.323536
randomgame-101-4-8-9.pg 	 Correct 	 Time 0.479654
randomgame-101-4-9-10.pg 	 Correct 	 Time 0.452718
randomgame-101-4-10-11.pg 	 Correct 	 Time 0.559502
randomgame-102-4-5-6.pg 	 Correct 	 Time 0.443465
randomgame-102-4-6-7.pg 	 Correct 	 Time 0.458628
randomgame-102-4-7-8.pg 	 Correct 	 Time 0.845857
randomgame-102-4-8-9.pg 	 Correct 	 Time 0.679513
randomgame-102-4-9-10.pg 	 Correct 	 Time 0.811572
randomgame-102-4-10-11.pg 	 Correct 	 Time 0.704306
randomgame-103-4-5-6.pg 	 Correct 	 Time 0.613444
randomgame-103-4-6-7.pg 	 Correct 	 Time 0.605493
randomgame-103-4-7-8.pg 	 Correct 	 Time 0.702377
randomgame-103-4-8-9.pg 	 Correct 	 Time 0.607711
randomgame-103-4-9-10.pg 	 Correct 	 Time 0.932248
randomgame-103-4-10-11.pg 	 Correct 	 Time 0.642019
randomgame-104-4-5-6.pg 	 Correct 	 Time 0.504853
randomgame-104-4-6-7.pg 	 Correct 	 Time 0.442981
randomgame-104-4-7-8.pg 	 Correct 	 Time 0.397363
randomgame-104-4-8-9.pg 	 Correct 	 Time 0.683161
randomgame-104-4-9-10.pg 	 Correct 	 Time 0.529087
randomgame-104-4-10-11.pg 	 Correct 	 Time 0.814243
randomgame-105-4-5-6.pg 	 Correct 	 Time 0.52711
randomgame-105-4-6-7.pg 	 Correct 	 Time 0.584651
randomgame-105-4-7-8.pg 	 Correct 	 Time 0.634303
randomgame-105-4-8-9.pg 	 Correct 	 Time 0.519646
randomgame-105-4-9-10.pg 	 Correct 	 Time 0.490345
randomgame-105-4-10-11.pg 	 Correct 	 Time 0.6465
randomgame-106-4-5-6.pg 	 Correct 	 Time 0.583853
randomgame-106-4-6-7.pg 	 Correct 	 Time 0.485838
randomgame-106-4-7-8.pg 	 Correct 	 Time 0.433456
randomgame-106-4-8-9.pg 	 Correct 	 Time 0.466755
randomgame-106-4-9-10.pg 	 Correct 	 Time 0.6336
randomgame-106-4-10-11.pg 	 Correct 	 Time 0.519733
randomgame-107-4-5-6.pg 	 Correct 	 Time 0.535076
randomgame-107-4-6-7.pg 	 Correct 	 Time 0.455319
randomgame-107-4-7-8.pg 	 Correct 	 Time 0.614825
randomgame-107-4-8-9.pg 	 Correct 	 Time 0.673126
randomgame-107-4-9-10.pg 	 Correct 	 Time 0.683295
randomgame-107-4-10-11.pg 	 Correct 	 Time 0.809924
randomgame-108-4-5-6.pg 	 Correct 	 Time 0.889522
randomgame-108-4-6-7.pg 	 Correct 	 Time 0.663152
randomgame-108-4-7-8.pg 	 Correct 	 Time 0.532704
randomgame-108-4-8-9.pg 	 Correct 	 Time 0.444953
randomgame-108-4-9-10.pg 	 Correct 	 Time 0.843366
randomgame-108-4-10-11.pg 	 Correct 	 Time 0.655372
randomgame-109-4-5-6.pg 	 Correct 	 Time 0.678927
randomgame-109-4-6-7.pg 	 Correct 	 Time 0.474353
randomgame-109-4-7-8.pg 	 Correct 	 Time 0.486213
randomgame-109-4-8-9.pg 	 Correct 	 Time 0.793606
randomgame-109-4-9-10.pg 	 Correct 	 Time 1.09376
randomgame-109-4-10-11.pg 	 Correct 	 Time 0.829427
randomgame-110-4-5-6.pg 	 Correct 	 Time 0.523717
randomgame-110-4-6-7.pg 	 Correct 	 Time 1.0858
randomgame-110-4-7-8.pg 	 Correct 	 Time 0.778005
randomgame-110-4-8-9.pg 	 Correct 	 Time 0.547302
randomgame-110-4-9-10.pg 	 Correct 	 Time 0.601569
randomgame-110-4-10-11.pg 	 Correct 	 Time 0.685775
randomgame-111-4-5-6.pg 	 Correct 	 Time 0.60203
randomgame-111-4-6-7.pg 	 Correct 	 Time 0.912737
randomgame-111-4-7-8.pg 	 Correct 	 Time 0.540966
randomgame-111-4-8-9.pg 	 Correct 	 Time 0.561896
randomgame-111-4-9-10.pg 	 Correct 	 Time 0.652641
randomgame-111-4-10-11.pg 	 Correct 	 Time 0.830546
randomgame-112-4-5-6.pg 	 Correct 	 Time 0.847842
randomgame-112-4-6-7.pg 	 Correct 	 Time 0.758714
randomgame-112-4-7-8.pg 	 Correct 	 Time 0.381988
randomgame-112-4-8-9.pg 	 Correct 	 Time 0.555027
randomgame-112-4-9-10.pg 	 Correct 	 Time 0.70177
randomgame-112-4-10-11.pg 	 Correct 	 Time 0.641685
randomgame-113-4-5-6.pg 	 Correct 	 Time 0.679406
randomgame-113-4-6-7.pg 	 Correct 	 Time 1.24236
randomgame-113-4-7-8.pg 	 Correct 	 Time 0.802559
randomgame-113-4-8-9.pg 	 Correct 	 Time 0.889174
randomgame-113-4-9-10.pg 	 Correct 	 Time 1.07503
randomgame-113-4-10-11.pg 	 Correct 	 Time 0.691543
randomgame-114-4-5-6.pg 	 Correct 	 Time 0.472766
randomgame-114-4-6-7.pg 	 Correct 	 Time 0.360832
randomgame-114-4-7-8.pg 	 Correct 	 Time 1.26525
randomgame-114-4-8-9.pg 	 Correct 	 Time 0.477736
randomgame-114-4-9-10.pg 	 Correct 	 Time 0.932846
randomgame-114-4-10-11.pg 	 Correct 	 Time 0.612688
randomgame-115-4-5-6.pg 	 Correct 	 Time 1.29013
randomgame-115-4-6-7.pg 	 Correct 	 Time 0.6203
randomgame-115-4-7-8.pg 	 Correct 	 Time 0.685591
randomgame-115-4-8-9.pg 	 Correct 	 Time 1.02347
randomgame-115-4-9-10.pg 	 Correct 	 Time 0.887357
randomgame-115-4-10-11.pg 	 Correct 	 Time 0.790234
randomgame-116-4-5-6.pg 	 Correct 	 Time 0.466018
randomgame-116-4-6-7.pg 	 Correct 	 Time 0.651927
randomgame-116-4-7-8.pg 	 Correct 	 Time 0.844441
randomgame-116-4-8-9.pg 	 Correct 	 Time 0.661475
randomgame-116-4-9-10.pg 	 Correct 	 Time 0.929635
randomgame-116-4-10-11.pg 	 Correct 	 Time 0.760122
randomgame-117-4-5-6.pg 	 Correct 	 Time 1.35364
randomgame-117-4-6-7.pg 	 Correct 	 Time 0.667239
randomgame-117-4-7-8.pg 	 Correct 	 Time 0.705906
randomgame-117-4-8-9.pg 	 Correct 	 Time 0.511501
randomgame-117-4-9-10.pg 	 Correct 	 Time 0.671785
randomgame-117-4-10-11.pg 	 Correct 	 Time 0.868654
randomgame-118-4-5-6.pg 	 Correct 	 Time 0.567159
randomgame-118-4-6-7.pg 	 Correct 	 Time 0.640099
randomgame-118-4-7-8.pg 	 Correct 	 Time 0.543437
randomgame-118-4-8-9.pg 	 Correct 	 Time 0.706673
randomgame-118-4-9-10.pg 	 Correct 	 Time 1.11836
randomgame-118-4-10-11.pg 	 Correct 	 Time 0.794673
randomgame-119-4-5-6.pg 	 Correct 	 Time 0.788476
randomgame-119-4-6-7.pg 	 Correct 	 Time 0.769727
randomgame-119-4-7-8.pg 	 Correct 	 Time 0.791157
randomgame-119-4-8-9.pg 	 Correct 	 Time 0.6437
randomgame-119-4-9-10.pg 	 Correct 	 Time 0.693225
randomgame-119-4-10-11.pg 	 Correct 	 Time 0.716027
randomgame-120-4-5-6.pg 	 Correct 	 Time 0.855641
randomgame-120-4-6-7.pg 	 Correct 	 Time 0.684279
randomgame-120-4-7-8.pg 	 Correct 	 Time 0.612818
randomgame-120-4-8-9.pg 	 Correct 	 Time 0.883815
randomgame-120-4-9-10.pg 	 Correct 	 Time 1.01861
randomgame-120-4-10-11.pg 	 Correct 	 Time 0.916295
randomgame-121-4-5-6.pg 	 Correct 	 Time 0.955753
randomgame-121-4-6-7.pg 	 Correct 	 Time 0.595612
randomgame-121-4-7-8.pg 	 Correct 	 Time 1.22861
randomgame-121-4-8-9.pg 	 Correct 	 Time 0.834757
randomgame-121-4-9-10.pg 	 Correct 	 Time 0.601855
randomgame-121-4-10-11.pg 	 Correct 	 Time 0.87728
randomgame-122-4-5-6.pg 	 Correct 	 Time 0.97952
randomgame-122-4-6-7.pg 	 Correct 	 Time 0.648811
randomgame-122-4-7-8.pg 	 Correct 	 Time 0.649492
randomgame-122-4-8-9.pg 	 Correct 	 Time 0.651817
randomgame-122-4-9-10.pg 	 Correct 	 Time 0.885234
randomgame-122-4-10-11.pg 	 Correct 	 Time 1.18542
randomgame-123-4-5-6.pg 	 Correct 	 Time 0.594083
randomgame-123-4-6-7.pg 	 Correct 	 Time 1.1425
randomgame-123-4-7-8.pg 	 Correct 	 Time 0.842916
randomgame-123-4-8-9.pg 	 Correct 	 Time 0.892762
randomgame-123-4-9-10.pg 	 Correct 	 Time 0.770418
randomgame-123-4-10-11.pg 	 Correct 	 Time 1.28799
randomgame-124-4-5-6.pg 	 Correct 	 Time 1.07225
randomgame-124-4-6-7.pg 	 Correct 	 Time 1.12447
randomgame-124-4-7-8.pg 	 Correct 	 Time 1.2035
randomgame-124-4-8-9.pg 	 Correct 	 Time 0.71048
randomgame-124-4-9-10.pg 	 Correct 	 Time 1.16378
randomgame-124-4-10-11.pg 	 Correct 	 Time 0.74132
randomgame-125-4-5-6.pg 	 Correct 	 Time 0.817274
randomgame-125-4-6-7.pg 	 Correct 	 Time 0.885826
randomgame-125-4-7-8.pg 	 Correct 	 Time 0.976586
randomgame-125-4-8-9.pg 	 Correct 	 Time 0.987716
randomgame-125-4-9-10.pg 	 Correct 	 Time 1.06936
randomgame-125-4-10-11.pg 	 Correct 	 Time 0.926464
randomgame-126-4-5-6.pg 	 Correct 	 Time 1.08143
randomgame-126-4-6-7.pg 	 Correct 	 Time 0.622426
randomgame-126-4-7-8.pg 	 Correct 	 Time 1.38305
randomgame-126-4-8-9.pg 	 Correct 	 Time 0.971186
randomgame-126-4-9-10.pg 	 Correct 	 Time 0.824622
randomgame-126-4-10-11.pg 	 Correct 	 Time 0.858207
randomgame-127-4-5-6.pg 	 Correct 	 Time 1.28381
randomgame-127-4-6-7.pg 	 Correct 	 Time 0.781481
randomgame-127-4-7-8.pg 	 Correct 	 Time 0.884263
randomgame-127-4-8-9.pg 	 Correct 	 Time 0.746167
randomgame-127-4-9-10.pg 	 Correct 	 Time 0.742373
randomgame-127-4-10-11.pg 	 Correct 	 Time 1.17183
randomgame-128-4-5-6.pg 	 Correct 	 Time 0.795262
randomgame-128-4-6-7.pg 	 Correct 	 Time 0.430651
randomgame-128-4-7-8.pg 	 Correct 	 Time 0.770284
randomgame-128-4-8-9.pg 	 Correct 	 Time 0.762258
randomgame-128-4-9-10.pg 	 Correct 	 Time 0.988745
randomgame-128-4-10-11.pg 	 Correct 	 Time 0.770913
randomgame-129-4-5-6.pg 	 Correct 	 Time 0.586232
randomgame-129-4-6-7.pg 	 Correct 	 Time 1.09312
randomgame-129-4-7-8.pg 	 Correct 	 Time 0.862113
randomgame-129-4-8-9.pg 	 Correct 	 Time 0.939721
randomgame-129-4-9-10.pg 	 Correct 	 Time 0.789805
randomgame-129-4-10-11.pg 	 Correct 	 Time 1.2366
randomgame-130-4-5-6.pg 	 Correct 	 Time 0.702663
randomgame-130-4-6-7.pg 	 Correct 	 Time 0.720495
randomgame-130-4-7-8.pg 	 Correct 	 Time 0.845519
randomgame-130-4-8-9.pg 	 Correct 	 Time 0.842443
randomgame-130-4-9-10.pg 	 Correct 	 Time 1.26248
randomgame-130-4-10-11.pg 	 Correct 	 Time 0.768517
randomgame-131-4-5-6.pg 	 Correct 	 Time 1.29162
randomgame-131-4-6-7.pg 	 Correct 	 Time 1.07902
randomgame-131-4-7-8.pg 	 Correct 	 Time 0.654179
randomgame-131-4-8-9.pg 	 Correct 	 Time 1.0662
randomgame-131-4-9-10.pg 	 Correct 	 Time 1.16474
randomgame-131-4-10-11.pg 	 Correct 	 Time 0.951405
randomgame-132-4-5-6.pg 	 Correct 	 Time 1.16309
randomgame-132-4-6-7.pg 	 Correct 	 Time 1.04522
randomgame-132-4-7-8.pg 	 Correct 	 Time 1.21031
randomgame-132-4-8-9.pg 	 Correct 	 Time 0.817623
randomgame-132-4-9-10.pg 	 Correct 	 Time 1.03153
randomgame-132-4-10-11.pg 	 Correct 	 Time 0.712351
randomgame-133-4-5-6.pg 	 Correct 	 Time 1.20865
randomgame-133-4-6-7.pg 	 Correct 	 Time 0.97642
randomgame-133-4-7-8.pg 	 Correct 	 Time 0.711544
randomgame-133-4-8-9.pg 	 Correct 	 Time 0.693924
randomgame-133-4-9-10.pg 	 Correct 	 Time 0.846145
randomgame-133-4-10-11.pg 	 Correct 	 Time 0.961953
randomgame-134-4-5-6.pg 	 Correct 	 Time 1.25387
randomgame-134-4-6-7.pg 	 Correct 	 Time 1.14969
randomgame-134-4-7-8.pg 	 Correct 	 Time 0.949001
randomgame-134-4-8-9.pg 	 Correct 	 Time 0.677252
randomgame-134-4-9-10.pg 	 Correct 	 Time 1.44917
randomgame-134-4-10-11.pg 	 Correct 	 Time 1.03265
randomgame-135-4-5-6.pg 	 Correct 	 Time 1.11103
randomgame-135-4-6-7.pg 	 Correct 	 Time 1.01586
randomgame-135-4-7-8.pg 	 Correct 	 Time 1.45307
randomgame-135-4-8-9.pg 	 Correct 	 Time 1.15512
randomgame-135-4-9-10.pg 	 Correct 	 Time 0.910282
randomgame-135-4-10-11.pg 	 Correct 	 Time 1.56225
randomgame-136-4-5-6.pg 	 Correct 	 Time 0.704315
randomgame-136-4-6-7.pg 	 Correct 	 Time 0.91285
randomgame-136-4-7-8.pg 	 Correct 	 Time 1.37318
randomgame-136-4-8-9.pg 	 Correct 	 Time 1.05929
randomgame-136-4-9-10.pg 	 Correct 	 Time 0.933697
randomgame-136-4-10-11.pg 	 Correct 	 Time 1.03323
randomgame-137-4-5-6.pg 	 Correct 	 Time 1.32656
randomgame-137-4-6-7.pg 	 Correct 	 Time 1.19814
randomgame-137-4-7-8.pg 	 Correct 	 Time 0.667876
randomgame-137-4-8-9.pg 	 Correct 	 Time 1.45816
randomgame-137-4-9-10.pg 	 Correct 	 Time 0.996392
randomgame-137-4-10-11.pg 	 Correct 	 Time 0.958084
randomgame-138-4-5-6.pg 	 Correct 	 Time 0.966204
randomgame-138-4-6-7.pg 	 Correct 	 Time 1.57774
randomgame-138-4-7-8.pg 	 Correct 	 Time 1.04446
randomgame-138-4-8-9.pg 	 Correct 	 Time 1.67053
randomgame-138-4-9-10.pg 	 Correct 	 Time 1.61351
randomgame-138-4-10-11.pg 	 Correct 	 Time 1.57537
randomgame-139-4-5-6.pg 	 Correct 	 Time 0.842668
randomgame-139-4-6-7.pg 	 Correct 	 Time 1.60745
randomgame-139-4-7-8.pg 	 Correct 	 Time 0.815896
randomgame-139-4-8-9.pg 	 Correct 	 Time 1.0522
randomgame-139-4-9-10.pg 	 Correct 	 Time 1.08734
randomgame-139-4-10-11.pg 	 Correct 	 Time 1.20107
randomgame-140-4-5-6.pg 	 Correct 	 Time 1.64977
randomgame-140-4-6-7.pg 	 Correct 	 Time 1.73368
randomgame-140-4-7-8.pg 	 Correct 	 Time 0.874641
randomgame-140-4-8-9.pg 	 Correct 	 Time 1.35943
randomgame-140-4-9-10.pg 	 Correct 	 Time 1.06626
randomgame-140-4-10-11.pg 	 Correct 	 Time 1.14753
randomgame-141-4-5-6.pg 	 Correct 	 Time 1.43219
randomgame-141-4-6-7.pg 	 Correct 	 Time 0.82149
randomgame-141-4-7-8.pg 	 Correct 	 Time 0.828703
randomgame-141-4-8-9.pg 	 Correct 	 Time 0.916474
randomgame-141-4-9-10.pg 	 Correct 	 Time 1.1753
randomgame-141-4-10-11.pg 	 Correct 	 Time 1.06193
randomgame-142-4-5-6.pg 	 Correct 	 Time 1.31854
randomgame-142-4-6-7.pg 	 Correct 	 Time 1.12163
randomgame-142-4-7-8.pg 	 Correct 	 Time 1.76555
randomgame-142-4-8-9.pg 	 Correct 	 Time 1.02889
randomgame-142-4-9-10.pg 	 Correct 	 Time 0.98481
randomgame-142-4-10-11.pg 	 Correct 	 Time 1.21856
randomgame-143-4-5-6.pg 	 Correct 	 Time 1.0969
randomgame-143-4-6-7.pg 	 Correct 	 Time 0.988018
randomgame-143-4-7-8.pg 	 Correct 	 Time 1.06071
randomgame-143-4-8-9.pg 	 Correct 	 Time 1.25921
randomgame-143-4-9-10.pg 	 Correct 	 Time 1.45153
randomgame-143-4-10-11.pg 	 Correct 	 Time 1.28254
randomgame-144-4-5-6.pg 	 Correct 	 Time 0.94807
randomgame-144-4-6-7.pg 	 Correct 	 Time 0.796507
randomgame-144-4-7-8.pg 	 Correct 	 Time 1.48733
randomgame-144-4-8-9.pg 	 Correct 	 Time 1.62439
randomgame-144-4-9-10.pg 	 Correct 	 Time 1.17579
randomgame-144-4-10-11.pg 	 Correct 	 Time 1.31439
randomgame-145-4-5-6.pg 	 Correct 	 Time 1.23262
randomgame-145-4-6-7.pg 	 Correct 	 Time 0.915758
randomgame-145-4-7-8.pg 	 Correct 	 Time 1.93318
randomgame-145-4-8-9.pg 	 Correct 	 Time 1.16004
randomgame-145-4-9-10.pg 	 Correct 	 Time 0.972374
randomgame-145-4-10-11.pg 	 Correct 	 Time 1.39758
randomgame-146-4-5-6.pg 	 Correct 	 Time 0.910526
randomgame-146-4-6-7.pg 	 Correct 	 Time 1.19525
randomgame-146-4-7-8.pg 	 Correct 	 Time 1.49268
randomgame-146-4-8-9.pg 	 Correct 	 Time 1.30236
randomgame-146-4-9-10.pg 	 Correct 	 Time 1.28976
randomgame-146-4-10-11.pg 	 Correct 	 Time 0.985776
randomgame-147-4-5-6.pg 	 Correct 	 Time 1.25341
randomgame-147-4-6-7.pg 	 Correct 	 Time 1.73461
randomgame-147-4-7-8.pg 	 Correct 	 Time 1.07716
randomgame-147-4-8-9.pg 	 Correct 	 Time 1.15612
randomgame-147-4-9-10.pg 	 Correct 	 Time 1.50042
randomgame-147-4-10-11.pg 	 Correct 	 Time 1.23578
randomgame-148-4-5-6.pg 	 Correct 	 Time 1.25101
randomgame-148-4-6-7.pg 	 Correct 	 Time 3.09898
randomgame-148-4-7-8.pg 	 Correct 	 Time 1.92646
randomgame-148-4-8-9.pg 	 Correct 	 Time 1.53717
randomgame-148-4-9-10.pg 	 Correct 	 Time 1.14549
randomgame-148-4-10-11.pg 	 Correct 	 Time 1.47952
randomgame-149-4-5-6.pg 	 Correct 	 Time 2.621
randomgame-149-4-6-7.pg 	 Correct 	 Time 1.05767
randomgame-149-4-7-8.pg 	 Correct 	 Time 0.979513
randomgame-149-4-8-9.pg 	 Correct 	 Time 1.12825
randomgame-149-4-9-10.pg 	 Correct 	 Time 1.38806
randomgame-149-4-10-11.pg 	 Correct 	 Time 1.57555
randomgame-150-4-5-6.pg 	 Correct 	 Time 1.28573
randomgame-150-4-6-7.pg 	 Correct 	 Time 1.31895
randomgame-150-4-7-8.pg 	 Correct 	 Time 1.20233
randomgame-150-4-8-9.pg 	 Correct 	 Time 0.831806
randomgame-150-4-9-10.pg 	 Correct 	 Time 1.49117
randomgame-150-4-10-11.pg 	 Correct 	 Time 1.11292
randomgame-151-4-5-6.pg 	 Correct 	 Time 1.91346
randomgame-151-4-6-7.pg 	 Correct 	 Time 1.04199
randomgame-151-4-7-8.pg 	 Correct 	 Time 0.895745
randomgame-151-4-8-9.pg 	 Correct 	 Time 1.84679
randomgame-151-4-9-10.pg 	 Correct 	 Time 1.092
randomgame-151-4-10-11.pg 	 Correct 	 Time 1.19086
randomgame-152-4-5-6.pg 	 Correct 	 Time 2.19
randomgame-152-4-6-7.pg 	 Correct 	 Time 1.80084
randomgame-152-4-7-8.pg 	 Correct 	 Time 0.904896
randomgame-152-4-8-9.pg 	 Correct 	 Time 1.20501
randomgame-152-4-9-10.pg 	 Correct 	 Time 1.18603
randomgame-152-4-10-11.pg 	 Correct 	 Time 2.45948
randomgame-153-4-5-6.pg 	 Correct 	 Time 0.959534
randomgame-153-4-6-7.pg 	 Correct 	 Time 1.27798
randomgame-153-4-7-8.pg 	 Correct 	 Time 0.814835
randomgame-153-4-8-9.pg 	 Correct 	 Time 1.56758
randomgame-153-4-9-10.pg 	 Correct 	 Time 1.59398
randomgame-153-4-10-11.pg 	 Correct 	 Time 1.76459
randomgame-154-4-5-6.pg 	 Correct 	 Time 1.81879
randomgame-154-4-6-7.pg 	 Correct 	 Time 1.06454
randomgame-154-4-7-8.pg 	 Correct 	 Time 1.02306
randomgame-154-4-8-9.pg 	 Correct 	 Time 1.20459
randomgame-154-4-9-10.pg 	 Correct 	 Time 1.55878
randomgame-154-4-10-11.pg 	 Correct 	 Time 1.26845
randomgame-155-4-5-6.pg 	 Correct 	 Time 1.54466
randomgame-155-4-6-7.pg 	 Correct 	 Time 0.83429
randomgame-155-4-7-8.pg 	 Correct 	 Time 1.31743
randomgame-155-4-8-9.pg 	 Correct 	 Time 1.24232
randomgame-155-4-9-10.pg 	 Correct 	 Time 1.5918
randomgame-155-4-10-11.pg 	 Correct 	 Time 2.34536
randomgame-156-4-5-6.pg 	 Correct 	 Time 1.18774
randomgame-156-4-6-7.pg 	 Correct 	 Time 1.07816
randomgame-156-4-7-8.pg 	 Correct 	 Time 1.81945
randomgame-156-4-8-9.pg 	 Correct 	 Time 1.35801
randomgame-156-4-9-10.pg 	 Correct 	 Time 1.01339
randomgame-156-4-10-11.pg 	 Correct 	 Time 1.37433
randomgame-157-4-5-6.pg 	 Correct 	 Time 1.66089
randomgame-157-4-6-7.pg 	 Correct 	 Time 1.24462
randomgame-157-4-7-8.pg 	 Correct 	 Time 1.75953
randomgame-157-4-8-9.pg 	 Correct 	 Time 1.63617
randomgame-157-4-9-10.pg 	 Correct 	 Time 1.29507
randomgame-157-4-10-11.pg 	 Correct 	 Time 1.38558
randomgame-158-4-5-6.pg 	 Correct 	 Time 1.08947
randomgame-158-4-6-7.pg 	 Correct 	 Time 1.87524
randomgame-158-4-7-8.pg 	 Correct 	 Time 1.34127
randomgame-158-4-8-9.pg 	 Correct 	 Time 1.58856
randomgame-158-4-9-10.pg 	 Correct 	 Time 2.05175
randomgame-158-4-10-11.pg 	 Correct 	 Time 1.22755
randomgame-159-4-5-6.pg 	 Correct 	 Time 0.940769
randomgame-159-4-6-7.pg 	 Correct 	 Time 1.72789
randomgame-159-4-7-8.pg 	 Correct 	 Time 1.71924
randomgame-159-4-8-9.pg 	 Correct 	 Time 1.46887
randomgame-159-4-9-10.pg 	 Correct 	 Time 1.16183
randomgame-159-4-10-11.pg 	 Correct 	 Time 1.46933
randomgame-160-4-5-6.pg 	 Correct 	 Time 1.2245
randomgame-160-4-6-7.pg 	 Correct 	 Time 1.1226
randomgame-160-4-7-8.pg 	 Correct 	 Time 1.35163
randomgame-160-4-8-9.pg 	 Correct 	 Time 1.3057
randomgame-160-4-9-10.pg 	 Correct 	 Time 1.31387
randomgame-160-4-10-11.pg 	 Correct 	 Time 1.66998
randomgame-161-4-5-6.pg 	 Correct 	 Time 1.97294
randomgame-161-4-6-7.pg 	 Correct 	 Time 1.23573
randomgame-161-4-7-8.pg 	 Correct 	 Time 1.2163
randomgame-161-4-8-9.pg 	 Correct 	 Time 1.4872
randomgame-161-4-9-10.pg 	 Correct 	 Time 1.5273
randomgame-161-4-10-11.pg 	 Correct 	 Time 1.76946
randomgame-162-4-5-6.pg 	 Correct 	 Time 1.74132
randomgame-162-4-6-7.pg 	 Correct 	 Time 1.85805
randomgame-162-4-7-8.pg 	 Correct 	 Time 1.73376
randomgame-162-4-8-9.pg 	 Correct 	 Time 1.94213
randomgame-162-4-9-10.pg 	 Correct 	 Time 1.59791
randomgame-162-4-10-11.pg 	 Correct 	 Time 1.69116
randomgame-163-4-5-6.pg 	 Correct 	 Time 1.81937
randomgame-163-4-6-7.pg 	 Correct 	 Time 1.37679
randomgame-163-4-7-8.pg 	 Correct 	 Time 1.7302
randomgame-163-4-8-9.pg 	 Correct 	 Time 1.59929
randomgame-163-4-9-10.pg 	 Correct 	 Time 1.76854
randomgame-163-4-10-11.pg 	 Correct 	 Time 1.80537
randomgame-164-4-5-6.pg 	 Correct 	 Time 1.28723
randomgame-164-4-6-7.pg 	 Correct 	 Time 1.83623
randomgame-164-4-7-8.pg 	 Correct 	 Time 1.42665
randomgame-164-4-8-9.pg 	 Correct 	 Time 1.87663
randomgame-164-4-9-10.pg 	 Correct 	 Time 2.22378
randomgame-164-4-10-11.pg 	 Correct 	 Time 1.55053
randomgame-165-4-5-6.pg 	 Correct 	 Time 1.29222
randomgame-165-4-6-7.pg 	 Correct 	 Time 1.57778
randomgame-165-4-7-8.pg 	 Correct 	 Time 1.23732
randomgame-165-4-8-9.pg 	 Correct 	 Time 1.41429
randomgame-165-4-9-10.pg 	 Correct 	 Time 1.15354
randomgame-165-4-10-11.pg 	 Correct 	 Time 1.24999
randomgame-166-4-5-6.pg 	 Correct 	 Time 1.14648
randomgame-166-4-6-7.pg 	 Correct 	 Time 1.03767
randomgame-166-4-7-8.pg 	 Correct 	 Time 1.69464
randomgame-166-4-8-9.pg 	 Correct 	 Time 1.36016
randomgame-166-4-9-10.pg 	 Correct 	 Time 1.84698
randomgame-166-4-10-11.pg 	 Correct 	 Time 1.51846
randomgame-167-4-5-6.pg 	 Correct 	 Time 1.65483
randomgame-167-4-6-7.pg 	 Correct 	 Time 2.16479
randomgame-167-4-7-8.pg 	 Correct 	 Time 1.37817
randomgame-167-4-8-9.pg 	 Correct 	 Time 1.67611
randomgame-167-4-9-10.pg 	 Correct 	 Time 1.90154
randomgame-167-4-10-11.pg 	 Correct 	 Time 1.92955
randomgame-168-4-5-6.pg 	 Correct 	 Time 0.688785
randomgame-168-4-6-7.pg 	 Correct 	 Time 1.16457
randomgame-168-4-7-8.pg 	 Correct 	 Time 1.43409
randomgame-168-4-8-9.pg 	 Correct 	 Time 1.88067
randomgame-168-4-9-10.pg 	 Correct 	 Time 1.29022
randomgame-168-4-10-11.pg 	 Correct 	 Time 2.26236
randomgame-169-4-5-6.pg 	 Correct 	 Time 1.18987
randomgame-169-4-6-7.pg 	 Correct 	 Time 1.14666
randomgame-169-4-7-8.pg 	 Correct 	 Time 1.96133
randomgame-169-4-8-9.pg 	 Correct 	 Time 1.58558
randomgame-169-4-9-10.pg 	 Correct 	 Time 2.06867
randomgame-169-4-10-11.pg 	 Correct 	 Time 1.63197
randomgame-170-4-5-6.pg 	 Correct 	 Time 1.90739
randomgame-170-4-6-7.pg 	 Correct 	 Time 1.58532
randomgame-170-4-7-8.pg 	 Correct 	 Time 1.23871
randomgame-170-4-8-9.pg 	 Correct 	 Time 1.3998
randomgame-170-4-9-10.pg 	 Correct 	 Time 2.24561
randomgame-170-4-10-11.pg 	 Correct 	 Time 1.79701
randomgame-171-4-5-6.pg 	 Correct 	 Time 1.7555
randomgame-171-4-6-7.pg 	 Correct 	 Time 1.34313
randomgame-171-4-7-8.pg 	 Correct 	 Time 1.44451
randomgame-171-4-8-9.pg 	 Correct 	 Time 1.67527
randomgame-171-4-9-10.pg 	 Correct 	 Time 1.90069
randomgame-171-4-10-11.pg 	 Correct 	 Time 1.86182
randomgame-172-4-5-6.pg 	 Correct 	 Time 2.38342
randomgame-172-4-6-7.pg 	 Correct 	 Time 1.78466
randomgame-172-4-7-8.pg 	 Correct 	 Time 1.66651
randomgame-172-4-8-9.pg 	 Correct 	 Time 1.45291
randomgame-172-4-9-10.pg 	 Correct 	 Time 2.28502
randomgame-172-4-10-11.pg 	 Correct 	 Time 1.61662
randomgame-173-4-5-6.pg 	 Correct 	 Time 1.53735
randomgame-173-4-6-7.pg 	 Correct 	 Time 1.62392
randomgame-173-4-7-8.pg 	 Correct 	 Time 1.49479
randomgame-173-4-8-9.pg 	 Correct 	 Time 2.73775
randomgame-173-4-9-10.pg 	 Correct 	 Time 1.89302
randomgame-173-4-10-11.pg 	 Correct 	 Time 2.21539
randomgame-174-4-5-6.pg 	 Correct 	 Time 1.91509
randomgame-174-4-6-7.pg 	 Correct 	 Time 1.80448
randomgame-174-4-7-8.pg 	 Correct 	 Time 1.56873
randomgame-174-4-8-9.pg 	 Correct 	 Time 2.37622
randomgame-174-4-9-10.pg 	 Correct 	 Time 1.5266
randomgame-174-4-10-11.pg 	 Correct 	 Time 3.25051
randomgame-175-4-5-6.pg 	 Correct 	 Time 1.70676
randomgame-175-4-6-7.pg 	 Correct 	 Time 1.91925
randomgame-175-4-7-8.pg 	 Correct 	 Time 2.64239
randomgame-175-4-8-9.pg 	 Correct 	 Time 1.7791
randomgame-175-4-9-10.pg 	 Correct 	 Time 2.89408
randomgame-175-4-10-11.pg 	 Correct 	 Time 1.59159
randomgame-176-4-5-6.pg 	 Correct 	 Time 1.70037
randomgame-176-4-6-7.pg 	 Correct 	 Time 2.14646
randomgame-176-4-7-8.pg 	 Correct 	 Time 2.22452
randomgame-176-4-8-9.pg 	 Correct 	 Time 1.42387
randomgame-176-4-9-10.pg 	 Correct 	 Time 1.96221
randomgame-176-4-10-11.pg 	 Correct 	 Time 1.89745
randomgame-177-4-5-6.pg 	 Correct 	 Time 1.34519
randomgame-177-4-6-7.pg 	 Correct 	 Time 1.93811
randomgame-177-4-7-8.pg 	 Correct 	 Time 1.79494
randomgame-177-4-8-9.pg 	 Correct 	 Time 2.07343
randomgame-177-4-9-10.pg 	 Correct 	 Time 2.55083
randomgame-177-4-10-11.pg 	 Correct 	 Time 1.92567
randomgame-178-4-5-6.pg 	 Correct 	 Time 1.70657
randomgame-178-4-6-7.pg 	 Correct 	 Time 1.8852
randomgame-178-4-7-8.pg 	 Correct 	 Time 1.23518
randomgame-178-4-8-9.pg 	 Correct 	 Time 1.55056
randomgame-178-4-9-10.pg 	 Correct 	 Time 1.90746
randomgame-178-4-10-11.pg 	 Correct 	 Time 2.04043
randomgame-179-4-5-6.pg 	 Correct 	 Time 1.85608
randomgame-179-4-6-7.pg 	 Correct 	 Time 1.06047
randomgame-179-4-7-8.pg 	 Correct 	 Time 2.04997
randomgame-179-4-8-9.pg 	 Correct 	 Time 1.29238
randomgame-179-4-9-10.pg 	 Correct 	 Time 1.60305
randomgame-179-4-10-11.pg 	 Correct 	 Time 1.76887
randomgame-180-4-5-6.pg 	 Correct 	 Time 2.5733
randomgame-180-4-6-7.pg 	 Correct 	 Time 1.98447
randomgame-180-4-7-8.pg 	 Correct 	 Time 1.43589
randomgame-180-4-8-9.pg 	 Correct 	 Time 1.51206
randomgame-180-4-9-10.pg 	 Correct 	 Time 1.42107
randomgame-180-4-10-11.pg 	 Correct 	 Time 2.20395
randomgame-181-4-5-6.pg 	 Correct 	 Time 3.0313
randomgame-181-4-6-7.pg 	 Correct 	 Time 2.29379
randomgame-181-4-7-8.pg 	 Correct 	 Time 1.31806
randomgame-181-4-8-9.pg 	 Correct 	 Time 2.51751
randomgame-181-4-9-10.pg 	 Correct 	 Time 1.66584
randomgame-181-4-10-11.pg 	 Correct 	 Time 2.82661
randomgame-182-4-5-6.pg 	 Correct 	 Time 2.39855
randomgame-182-4-6-7.pg 	 Correct 	 Time 1.19268
randomgame-182-4-7-8.pg 	 Correct 	 Time 2.79806
randomgame-182-4-8-9.pg 	 Correct 	 Time 2.05962
randomgame-182-4-9-10.pg 	 Correct 	 Time 1.67151
randomgame-182-4-10-11.pg 	 Correct 	 Time 2.6152
randomgame-183-4-5-6.pg 	 Correct 	 Time 1.52532
randomgame-183-4-6-7.pg 	 Correct 	 Time 1.66602
randomgame-183-4-7-8.pg 	 Correct 	 Time 2.02378
randomgame-183-4-8-9.pg 	 Correct 	 Time 1.27378
randomgame-183-4-9-10.pg 	 Correct 	 Time 1.7114
randomgame-183-4-10-11.pg 	 Correct 	 Time 1.94073
randomgame-184-4-5-6.pg 	 Correct 	 Time 2.59559
randomgame-184-4-6-7.pg 	 Correct 	 Time 1.53459
randomgame-184-4-7-8.pg 	 Correct 	 Time 2.25793
randomgame-184-4-8-9.pg 	 Correct 	 Time 2.00755
randomgame-184-4-9-10.pg 	 Correct 	 Time 1.80544
randomgame-184-4-10-11.pg 	 Correct 	 Time 2.14729
randomgame-185-4-5-6.pg 	 Correct 	 Time 1.63958
randomgame-185-4-6-7.pg 	 Correct 	 Time 2.44408
randomgame-185-4-7-8.pg 	 Correct 	 Time 2.10039
randomgame-185-4-8-9.pg 	 Correct 	 Time 2.44535
randomgame-185-4-9-10.pg 	 Correct 	 Time 1.94576
randomgame-185-4-10-11.pg 	 Correct 	 Time 2.01978
randomgame-186-4-5-6.pg 	 Correct 	 Time 2.33888
randomgame-186-4-6-7.pg 	 Correct 	 Time 2.17373
randomgame-186-4-7-8.pg 	 Correct 	 Time 1.93443
randomgame-186-4-8-9.pg 	 Correct 	 Time 1.35856
randomgame-186-4-9-10.pg 	 Correct 	 Time 1.79734
randomgame-186-4-10-11.pg 	 Correct 	 Time 1.91058
randomgame-187-4-5-6.pg 	 Correct 	 Time 2.29843
randomgame-187-4-6-7.pg 	 Correct 	 Time 1.93194
randomgame-187-4-7-8.pg 	 Correct 	 Time 2.15151
randomgame-187-4-8-9.pg 	 Correct 	 Time 2.0498
randomgame-187-4-9-10.pg 	 Correct 	 Time 1.83141
randomgame-187-4-10-11.pg 	 Correct 	 Time 2.03238
randomgame-188-4-5-6.pg 	 Correct 	 Time 2.61404
randomgame-188-4-6-7.pg 	 Correct 	 Time 1.85487
randomgame-188-4-7-8.pg 	 Correct 	 Time 2.21471
randomgame-188-4-8-9.pg 	 Correct 	 Time 3.39128
randomgame-188-4-9-10.pg 	 Correct 	 Time 2.2301
randomgame-188-4-10-11.pg 	 Correct 	 Time 2.1602
randomgame-189-4-5-6.pg 	 Correct 	 Time 2.41552
randomgame-189-4-6-7.pg 	 Correct 	 Time 2.45615
randomgame-189-4-7-8.pg 	 Correct 	 Time 2.61099
randomgame-189-4-8-9.pg 	 Correct 	 Time 2.05718
randomgame-189-4-9-10.pg 	 Correct 	 Time 2.8427
randomgame-189-4-10-11.pg 	 Correct 	 Time 2.02336
randomgame-190-4-5-6.pg 	 Correct 	 Time 2.48111
randomgame-190-4-6-7.pg 	 Correct 	 Time 1.75046
randomgame-190-4-7-8.pg 	 Correct 	 Time 1.66163
randomgame-190-4-8-9.pg 	 Correct 	 Time 2.70843
randomgame-190-4-9-10.pg 	 Correct 	 Time 2.49569
randomgame-190-4-10-11.pg 	 Correct 	 Time 2.1315
randomgame-191-4-5-6.pg 	 Correct 	 Time 2.08826
randomgame-191-4-6-7.pg 	 Correct 	 Time 2.14016
randomgame-191-4-7-8.pg 	 Correct 	 Time 2.27472
randomgame-191-4-8-9.pg 	 Correct 	 Time 2.24051
randomgame-191-4-9-10.pg 	 Correct 	 Time 2.42488
randomgame-191-4-10-11.pg 	 Correct 	 Time 1.73089
randomgame-192-4-5-6.pg 	 Correct 	 Time 2.53331
randomgame-192-4-6-7.pg 	 Correct 	 Time 2.05879
randomgame-192-4-7-8.pg 	 Correct 	 Time 1.35116
randomgame-192-4-8-9.pg 	 Correct 	 Time 2.90375
randomgame-192-4-9-10.pg 	 Correct 	 Time 2.34714
randomgame-192-4-10-11.pg 	 Correct 	 Time 2.95265
randomgame-193-4-5-6.pg 	 Correct 	 Time 2.00859
randomgame-193-4-6-7.pg 	 Correct 	 Time 1.71501
randomgame-193-4-7-8.pg 	 Correct 	 Time 2.67371
randomgame-193-4-8-9.pg 	 Correct 	 Time 2.07719
randomgame-193-4-9-10.pg 	 Correct 	 Time 2.28305
randomgame-193-4-10-11.pg 	 Correct 	 Time 2.10351
randomgame-194-4-5-6.pg 	 Correct 	 Time 3.99572
randomgame-194-4-6-7.pg 	 Correct 	 Time 1.5914
randomgame-194-4-7-8.pg 	 Correct 	 Time 2.86716
randomgame-194-4-8-9.pg 	 Correct 	 Time 1.72956
randomgame-194-4-9-10.pg 	 Correct 	 Time 1.90748
randomgame-194-4-10-11.pg 	 Correct 	 Time 2.02638
randomgame-195-4-5-6.pg 	 Correct 	 Time 1.63983
randomgame-195-4-6-7.pg 	 Correct 	 Time 2.59011
randomgame-195-4-7-8.pg 	 Correct 	 Time 2.0731
randomgame-195-4-8-9.pg 	 Correct 	 Time 3.03045
randomgame-195-4-9-10.pg 	 Correct 	 Time 2.70487
randomgame-195-4-10-11.pg 	 Correct 	 Time 3.43467
randomgame-196-4-5-6.pg 	 Correct 	 Time 1.72137
randomgame-196-4-6-7.pg 	 Correct 	 Time 3.74968
randomgame-196-4-7-8.pg 	 Correct 	 Time 2.6461
randomgame-196-4-8-9.pg 	 Correct 	 Time 1.95337
randomgame-196-4-9-10.pg 	 Correct 	 Time 2.35437
randomgame-196-4-10-11.pg 	 Correct 	 Time 2.27135
randomgame-197-4-5-6.pg 	 Correct 	 Time 1.9729
randomgame-197-4-6-7.pg 	 Correct 	 Time 2.33794
randomgame-197-4-7-8.pg 	 Correct 	 Time 3.03626
randomgame-197-4-8-9.pg 	 Correct 	 Time 2.99423
randomgame-197-4-9-10.pg 	 Correct 	 Time 2.07535
randomgame-197-4-10-11.pg 	 Correct 	 Time 2.36063
randomgame-198-4-5-6.pg 	 Correct 	 Time 3.73752
randomgame-198-4-6-7.pg 	 Correct 	 Time 2.66992
randomgame-198-4-7-8.pg 	 Correct 	 Time 2.98414
randomgame-198-4-8-9.pg 	 Correct 	 Time 2.50195
randomgame-198-4-9-10.pg 	 Correct 	 Time 3.21376
randomgame-198-4-10-11.pg 	 Correct 	 Time 2.77508
randomgame-199-4-5-6.pg 	 Correct 	 Time 2.90712
randomgame-199-4-6-7.pg 	 Correct 	 Time 1.97637
randomgame-199-4-7-8.pg 	 Correct 	 Time 2.1595
randomgame-199-4-8-9.pg 	 Correct 	 Time 1.8165
randomgame-199-4-9-10.pg 	 Correct 	 Time 2.73213
randomgame-199-4-10-11.pg 	 Correct 	 Time 3.93684
randomgame-200-4-5-6.pg 	 Correct 	 Time 2.10479
randomgame-200-4-6-7.pg 	 Correct 	 Time 2.0166
randomgame-200-4-7-8.pg 	 Correct 	 Time 2.73261
randomgame-200-4-8-9.pg 	 Correct 	 Time 2.76984
randomgame-200-4-9-10.pg 	 Correct 	 Time 2.75666
randomgame-200-4-10-11.pg 	 Correct 	 Time 2.44344
